EESchema Schematic File Version 4
EELAYER 30 0
EELAYER END
$Descr A4 11693 8268
encoding utf-8
Sheet 1 1
Title "Galvanically Isolated USB UART"
Date "2020-12-17"
Rev "2"
Comp "Loroco"
Comment1 ""
Comment2 ""
Comment3 ""
Comment4 ""
$EndDescr
$Comp
L Isolator:EL817 U4
U 1 1 5DC6B502
P 6700 2650
F 0 "U4" H 6700 2975 50  0000 C CNN
F 1 "EL357N" H 6700 2884 50  0000 C CNN
F 2 "Package_SO:SO-4_4.4x3.9mm_P2.54mm" H 6500 2450 50  0001 L CIN
F 3 "https://datasheet.lcsc.com/szlcsc/Everlight-Elec-EL357N-B-TA-G_C6649.pdf" H 6700 2650 50  0001 L CNN
	1    6700 2650
	1    0    0    -1  
$EndComp
$Comp
L Connector:USB_B_Micro J1
U 1 1 5DC74CF9
P 1700 1800
F 0 "J1" H 1757 2267 50  0000 C CNN
F 1 "USB_B_Micro" H 1757 2176 50  0000 C CNN
F 2 "Flatmush:USB_Micro-B_XKB-U254-051N-4BH806" H 1850 1750 50  0001 C CNN
F 3 "https://datasheet.lcsc.com/szlcsc/1811101533_XKB-Enterprise-U254-051N-4BH806_C319170.pdf" H 1850 1750 50  0001 C CNN
	1    1700 1800
	1    0    0    -1  
$EndComp
$Comp
L power:GND #PWR0101
U 1 1 5DC75754
P 1650 2400
F 0 "#PWR0101" H 1650 2150 50  0001 C CNN
F 1 "GND" H 1655 2227 50  0000 C CNN
F 2 "" H 1650 2400 50  0001 C CNN
F 3 "" H 1650 2400 50  0001 C CNN
	1    1650 2400
	1    0    0    -1  
$EndComp
Wire Wire Line
	1600 2200 1600 2300
Wire Wire Line
	1600 2300 1650 2300
Wire Wire Line
	1650 2300 1650 2400
Wire Wire Line
	1650 2300 1700 2300
Wire Wire Line
	1700 2300 1700 2200
Connection ~ 1650 2300
NoConn ~ 2000 2000
$Comp
L power:GND #PWR0102
U 1 1 5DC80558
P 4300 3500
F 0 "#PWR0102" H 4300 3250 50  0001 C CNN
F 1 "GND" H 4305 3327 50  0000 C CNN
F 2 "" H 4300 3500 50  0001 C CNN
F 3 "" H 4300 3500 50  0001 C CNN
	1    4300 3500
	1    0    0    -1  
$EndComp
Wire Wire Line
	4300 3500 4300 3400
$Comp
L Device:C_Small C4
U 1 1 5DC783FD
P 4000 2300
F 0 "C4" V 3771 2300 50  0000 C CNN
F 1 "10nF" V 3862 2300 50  0000 C CNN
F 2 "Capacitor_SMD:C_0402_1005Metric" H 4000 2300 50  0001 C CNN
F 3 "~" H 4000 2300 50  0001 C CNN
	1    4000 2300
	0    1    1    0   
$EndComp
Wire Wire Line
	4200 2400 4200 2300
Wire Wire Line
	4200 2300 4100 2300
$Comp
L power:GND #PWR0105
U 1 1 5DC7AD1A
P 3800 2300
F 0 "#PWR0105" H 3800 2050 50  0001 C CNN
F 1 "GND" V 3805 2172 50  0000 R CNN
F 2 "" H 3800 2300 50  0001 C CNN
F 3 "" H 3800 2300 50  0001 C CNN
	1    3800 2300
	0    1    1    0   
$EndComp
Wire Wire Line
	3800 2300 3900 2300
$Comp
L power:+3.3V #PWR0106
U 1 1 5DC7B888
P 4200 2200
F 0 "#PWR0106" H 4200 2050 50  0001 C CNN
F 1 "+3.3V" H 4215 2373 50  0000 C CNN
F 2 "" H 4200 2200 50  0001 C CNN
F 3 "" H 4200 2200 50  0001 C CNN
	1    4200 2200
	1    0    0    -1  
$EndComp
Wire Wire Line
	4200 2200 4200 2300
Connection ~ 4200 2300
$Comp
L power:VBUS #PWR0107
U 1 1 5DC7C5DE
P 4450 2200
F 0 "#PWR0107" H 4450 2050 50  0001 C CNN
F 1 "VBUS" H 4465 2373 50  0000 C CNN
F 2 "" H 4450 2200 50  0001 C CNN
F 3 "" H 4450 2200 50  0001 C CNN
	1    4450 2200
	1    0    0    -1  
$EndComp
Wire Wire Line
	4450 2200 4450 2300
Wire Wire Line
	4450 2300 4300 2300
Wire Wire Line
	4300 2300 4300 2400
Text Label 4800 2600 0    50   ~ 0
TXD
Text Label 4800 2700 0    50   ~ 0
RXD
Wire Wire Line
	4800 2700 4700 2700
Wire Wire Line
	4700 2600 4800 2600
Text Label 6200 1250 2    50   ~ 0
TXD
$Comp
L Device:R_Small R3
U 1 1 5DC82500
P 6100 1050
F 0 "R3" V 5904 1050 50  0000 C CNN
F 1 "510" V 5995 1050 50  0000 C CNN
F 2 "Resistor_SMD:R_0402_1005Metric" H 6100 1050 50  0001 C CNN
F 3 "~" H 6100 1050 50  0001 C CNN
	1    6100 1050
	0    1    1    0   
$EndComp
$Comp
L power:VBUS #PWR0108
U 1 1 5DC843EF
P 5900 950
F 0 "#PWR0108" H 5900 800 50  0001 C CNN
F 1 "VBUS" H 5915 1123 50  0000 C CNN
F 2 "" H 5900 950 50  0001 C CNN
F 3 "" H 5900 950 50  0001 C CNN
	1    5900 950 
	1    0    0    -1  
$EndComp
Wire Wire Line
	5900 950  5900 1050
Wire Wire Line
	5900 1050 6000 1050
$Comp
L power:GND #PWR0109
U 1 1 5DC852AD
P 6300 1850
F 0 "#PWR0109" H 6300 1600 50  0001 C CNN
F 1 "GND" V 6305 1722 50  0000 R CNN
F 2 "" H 6300 1850 50  0001 C CNN
F 3 "" H 6300 1850 50  0001 C CNN
	1    6300 1850
	0    1    1    0   
$EndComp
Wire Wire Line
	6300 1850 6400 1850
Text Label 6200 1750 2    50   ~ 0
RXD
$Comp
L Device:R_Small R6
U 1 1 5DC8BAB5
P 6100 1550
F 0 "R6" V 5904 1550 50  0000 C CNN
F 1 "10k" V 5995 1550 50  0000 C CNN
F 2 "Resistor_SMD:R_0402_1005Metric" H 6100 1550 50  0001 C CNN
F 3 "~" H 6100 1550 50  0001 C CNN
	1    6100 1550
	0    1    1    0   
$EndComp
Wire Wire Line
	6000 1550 5900 1550
Wire Wire Line
	5900 1550 5900 1050
Connection ~ 5900 1050
Wire Wire Line
	6200 1750 6300 1750
Wire Wire Line
	6300 1750 6300 1650
Wire Wire Line
	6300 1650 6400 1650
Wire Wire Line
	6300 1650 6300 1550
Wire Wire Line
	6300 1550 6200 1550
Connection ~ 6300 1650
Wire Wire Line
	6200 1250 6400 1250
Wire Wire Line
	6200 1050 6400 1050
Text Label 6200 2750 2    50   ~ 0
~RTS
$Comp
L Device:R_Small R4
U 1 1 5DC9A695
P 6100 2550
F 0 "R4" V 5904 2550 50  0000 C CNN
F 1 "510" V 5995 2550 50  0000 C CNN
F 2 "Resistor_SMD:R_0402_1005Metric" H 6100 2550 50  0001 C CNN
F 3 "~" H 6100 2550 50  0001 C CNN
	1    6100 2550
	0    1    1    0   
$EndComp
Wire Wire Line
	5900 2550 6000 2550
$Comp
L power:GND #PWR0110
U 1 1 5DC9A6A3
P 6300 3350
F 0 "#PWR0110" H 6300 3100 50  0001 C CNN
F 1 "GND" V 6305 3222 50  0000 R CNN
F 2 "" H 6300 3350 50  0001 C CNN
F 3 "" H 6300 3350 50  0001 C CNN
	1    6300 3350
	0    1    1    0   
$EndComp
Wire Wire Line
	6300 3350 6400 3350
Text Label 6200 3250 2    50   ~ 0
~CTS
$Comp
L Device:R_Small R8
U 1 1 5DC9A6AB
P 6100 3050
F 0 "R8" V 5904 3050 50  0000 C CNN
F 1 "10k" V 5995 3050 50  0000 C CNN
F 2 "Resistor_SMD:R_0402_1005Metric" H 6100 3050 50  0001 C CNN
F 3 "~" H 6100 3050 50  0001 C CNN
	1    6100 3050
	0    1    1    0   
$EndComp
Wire Wire Line
	6000 3050 5900 3050
Wire Wire Line
	5900 3050 5900 2550
Connection ~ 5900 2550
Wire Wire Line
	6200 3250 6300 3250
Wire Wire Line
	6300 3250 6300 3150
Wire Wire Line
	6300 3150 6400 3150
Wire Wire Line
	6300 3150 6300 3050
Wire Wire Line
	6300 3050 6200 3050
Connection ~ 6300 3150
Wire Wire Line
	6200 2750 6400 2750
Wire Wire Line
	6200 2550 6400 2550
Wire Wire Line
	5900 2450 5900 2550
$Comp
L power:VBUS #PWR0111
U 1 1 5DC9A69B
P 5900 2450
F 0 "#PWR0111" H 5900 2300 50  0001 C CNN
F 1 "VBUS" H 5915 2623 50  0000 C CNN
F 2 "" H 5900 2450 50  0001 C CNN
F 3 "" H 5900 2450 50  0001 C CNN
	1    5900 2450
	1    0    0    -1  
$EndComp
$Comp
L Device:R_Small R1
U 1 1 5DCA880B
P 7200 1650
F 0 "R1" V 7004 1650 50  0000 C CNN
F 1 "100" V 7095 1650 50  0000 C CNN
F 2 "Resistor_SMD:R_0402_1005Metric" H 7200 1650 50  0001 C CNN
F 3 "~" H 7200 1650 50  0001 C CNN
	1    7200 1650
	0    1    1    0   
$EndComp
$Comp
L Isolator:EL817 U6
U 1 1 5DCB38B0
P 6700 1150
F 0 "U6" H 6700 1475 50  0000 C CNN
F 1 "EL357N" H 6700 1384 50  0000 C CNN
F 2 "Package_SO:SO-4_4.4x3.9mm_P2.54mm" H 6500 950 50  0001 L CIN
F 3 "https://datasheet.lcsc.com/szlcsc/Everlight-Elec-EL357N-B-TA-G_C6649.pdf" H 6700 1150 50  0001 L CNN
	1    6700 1150
	1    0    0    -1  
$EndComp
$Comp
L Isolator:EL817 U5
U 1 1 5DCB628B
P 6700 3250
F 0 "U5" H 6700 3575 50  0000 C CNN
F 1 "EL357N" H 6700 3484 50  0000 C CNN
F 2 "Package_SO:SO-4_4.4x3.9mm_P2.54mm" H 6500 3050 50  0001 L CIN
F 3 "https://datasheet.lcsc.com/szlcsc/Everlight-Elec-EL357N-B-TA-G_C6649.pdf" H 6700 3250 50  0001 L CNN
	1    6700 3250
	-1   0    0    -1  
$EndComp
$Comp
L Isolator:EL817 U7
U 1 1 5DCBA577
P 6700 1750
F 0 "U7" H 6700 2075 50  0000 C CNN
F 1 "EL357N" H 6700 1984 50  0000 C CNN
F 2 "Package_SO:SO-4_4.4x3.9mm_P2.54mm" H 6500 1550 50  0001 L CIN
F 3 "https://datasheet.lcsc.com/szlcsc/Everlight-Elec-EL357N-B-TA-G_C6649.pdf" H 6700 1750 50  0001 L CNN
	1    6700 1750
	-1   0    0    -1  
$EndComp
Text Label 2100 1800 0    50   ~ 0
USB_D+
Text Label 2100 1900 0    50   ~ 0
USB_D-
Wire Wire Line
	2100 1900 2000 1900
Wire Wire Line
	2000 1800 2100 1800
Text Label 3800 2850 2    50   ~ 0
USB_D+
Text Label 3800 2950 2    50   ~ 0
USB_D-
Wire Wire Line
	3800 2950 3900 2950
Wire Wire Line
	3800 2850 3900 2850
$Comp
L Device:C_Small C3
U 1 1 5DCFBA69
P 2150 1200
F 0 "C3" H 2058 1154 50  0000 R CNN
F 1 "10nF" H 2058 1245 50  0000 R CNN
F 2 "Capacitor_SMD:C_0402_1005Metric" H 2150 1200 50  0001 C CNN
F 3 "~" H 2150 1200 50  0001 C CNN
	1    2150 1200
	-1   0    0    1   
$EndComp
$Comp
L power:GND #PWR0113
U 1 1 5DCFD53B
P 2150 1000
F 0 "#PWR0113" H 2150 750 50  0001 C CNN
F 1 "GND" H 2155 827 50  0000 C CNN
F 2 "" H 2150 1000 50  0001 C CNN
F 3 "" H 2150 1000 50  0001 C CNN
	1    2150 1000
	-1   0    0    1   
$EndComp
Wire Wire Line
	2150 1000 2150 1100
$Comp
L Device:Ferrite_Bead_Small FB1
U 1 1 5DD0171E
P 2400 1600
F 0 "FB1" V 2163 1600 50  0000 C CNN
F 1 "BEAD" V 2254 1600 50  0000 C CNN
F 2 "Inductor_SMD:L_0805_2012Metric" V 2330 1600 50  0001 C CNN
F 3 "~" H 2400 1600 50  0001 C CNN
	1    2400 1600
	0    1    1    0   
$EndComp
Wire Wire Line
	2300 1600 2150 1600
Wire Wire Line
	2150 1300 2150 1600
$Comp
L Device:C_Small C7
U 1 1 5DD097A8
P 2600 1200
F 0 "C7" H 2508 1154 50  0000 R CNN
F 1 "4.7uF/16V" H 2508 1245 50  0000 R CNN
F 2 "Capacitor_SMD:C_0603_1608Metric" H 2600 1200 50  0001 C CNN
F 3 "~" H 2600 1200 50  0001 C CNN
	1    2600 1200
	-1   0    0    1   
$EndComp
Wire Wire Line
	2600 1300 2600 1600
Wire Wire Line
	2600 1600 2500 1600
$Comp
L power:GND #PWR0114
U 1 1 5DD0C4E9
P 2600 1000
F 0 "#PWR0114" H 2600 750 50  0001 C CNN
F 1 "GND" H 2605 827 50  0000 C CNN
F 2 "" H 2600 1000 50  0001 C CNN
F 3 "" H 2600 1000 50  0001 C CNN
	1    2600 1000
	-1   0    0    1   
$EndComp
Wire Wire Line
	2600 1000 2600 1100
$Comp
L power:VBUS #PWR0115
U 1 1 5DD0E7DD
P 2700 1600
F 0 "#PWR0115" H 2700 1450 50  0001 C CNN
F 1 "VBUS" V 2715 1728 50  0000 L CNN
F 2 "" H 2700 1600 50  0001 C CNN
F 3 "" H 2700 1600 50  0001 C CNN
	1    2700 1600
	0    1    1    0   
$EndComp
Wire Wire Line
	2700 1600 2600 1600
Connection ~ 2600 1600
$Comp
L Device:C_Small C5
U 1 1 5DD10F72
P 4650 2300
F 0 "C5" V 4421 2300 50  0000 C CNN
F 1 "100uF" V 4512 2300 50  0000 C CNN
F 2 "Capacitor_SMD:C_0402_1005Metric" H 4650 2300 50  0001 C CNN
F 3 "~" H 4650 2300 50  0001 C CNN
	1    4650 2300
	0    1    1    0   
$EndComp
Wire Wire Line
	4550 2300 4450 2300
Connection ~ 4450 2300
$Comp
L power:GND #PWR0116
U 1 1 5DD13E42
P 4850 2300
F 0 "#PWR0116" H 4850 2050 50  0001 C CNN
F 1 "GND" V 4855 2172 50  0000 R CNN
F 2 "" H 4850 2300 50  0001 C CNN
F 3 "" H 4850 2300 50  0001 C CNN
	1    4850 2300
	0    -1   -1   0   
$EndComp
Wire Wire Line
	4850 2300 4750 2300
Text Label 4800 3000 0    50   ~ 0
~RTS
Text Label 4800 2900 0    50   ~ 0
~CTS
Wire Wire Line
	4800 2900 4700 2900
Wire Wire Line
	4800 3000 4700 3000
Text Label 9350 2500 2    50   ~ 0
VCC_IO
Text Label 7950 1850 0    50   ~ 0
RXD_IO
Wire Wire Line
	7950 1850 7850 1850
Text Label 7500 2450 0    50   ~ 0
VCC_IO
$Comp
L Device:R_Small R7
U 1 1 5DD7DF49
P 7300 2450
F 0 "R7" V 7104 2450 50  0000 C CNN
F 1 "10k" V 7195 2450 50  0000 C CNN
F 2 "Resistor_SMD:R_0402_1005Metric" H 7300 2450 50  0001 C CNN
F 3 "~" H 7300 2450 50  0001 C CNN
	1    7300 2450
	0    1    1    0   
$EndComp
Wire Wire Line
	7400 2450 7500 2450
Wire Wire Line
	7200 2450 7100 2450
Wire Wire Line
	7100 2450 7100 2550
Wire Wire Line
	7100 2550 7000 2550
Text Label 7100 2750 0    50   ~ 0
GND_IO
Wire Wire Line
	7100 2750 7000 2750
Text Label 7500 950  0    50   ~ 0
VCC_IO
$Comp
L Device:R_Small R5
U 1 1 5DD8938D
P 7300 950
F 0 "R5" V 7104 950 50  0000 C CNN
F 1 "10k" V 7195 950 50  0000 C CNN
F 2 "Resistor_SMD:R_0402_1005Metric" H 7300 950 50  0001 C CNN
F 3 "~" H 7300 950 50  0001 C CNN
	1    7300 950 
	0    1    1    0   
$EndComp
Wire Wire Line
	7400 950  7500 950 
Wire Wire Line
	7200 950  7100 950 
Wire Wire Line
	7100 950  7100 1050
Wire Wire Line
	7100 1050 7000 1050
Text Label 7100 1250 0    50   ~ 0
GND_IO
Wire Wire Line
	7100 1250 7000 1250
Text Label 7500 1150 0    50   ~ 0
TXD_IO
Wire Wire Line
	7100 1150 7100 1050
Connection ~ 7100 1050
$Comp
L Device:C_Small C6
U 1 1 5DD95CA5
P 9550 2500
F 0 "C6" V 9321 2500 50  0000 C CNN
F 1 "100uF" V 9412 2500 50  0000 C CNN
F 2 "Capacitor_SMD:C_0402_1005Metric" H 9550 2500 50  0001 C CNN
F 3 "~" H 9550 2500 50  0001 C CNN
	1    9550 2500
	0    1    1    0   
$EndComp
Text Label 9750 2500 0    50   ~ 0
GND_IO
Wire Wire Line
	9750 2500 9650 2500
$Comp
L Connector:Conn_01x06_Male J2
U 1 1 5DDA9C0B
P 9700 1700
F 0 "J2" H 9672 1674 50  0000 R CNN
F 1 "Conn_01x06_Male" H 9672 1583 50  0000 R CNN
F 2 "Footprints:PinHeader_1x06_P2.54mm_Horizontal_Panel" H 9700 1700 50  0001 C CNN
F 3 "~" H 9700 1700 50  0001 C CNN
	1    9700 1700
	-1   0    0    -1  
$EndComp
Text Label 9400 2000 2    50   ~ 0
GND_IO
Text Label 9400 1900 2    50   ~ 0
~CTS_IO
Text Label 9400 1500 2    50   ~ 0
VCC_IO
Text Label 9400 1600 2    50   ~ 0
TXD_IO
Text Label 9400 1700 2    50   ~ 0
RXD_IO
Text Label 9400 1800 2    50   ~ 0
~RTS_IO
Wire Wire Line
	9400 2000 9500 2000
Wire Wire Line
	9400 1900 9500 1900
Wire Wire Line
	9400 1500 9500 1500
Wire Wire Line
	9400 1600 9500 1600
Wire Wire Line
	9400 1700 9500 1700
Wire Wire Line
	9400 1800 9500 1800
Text Label 7500 2650 0    50   ~ 0
~RTS_IO
Wire Wire Line
	7100 2650 7100 2550
Connection ~ 7100 2550
Wire Wire Line
	7100 1150 7500 1150
Wire Wire Line
	7100 2650 7500 2650
$Comp
L Graphic:SYM_Flash_Small LOGO1
U 1 1 5DEC8975
P 3600 5050
F 0 "LOGO1" H 3679 5111 50  0000 L CNN
F 1 "Flatmush" H 3679 5020 50  0000 L CNN
F 2 "Flatmush:Flatmush" H 3600 5025 50  0001 C CNN
F 3 "~" H 4000 4950 50  0001 C CNN
	1    3600 5050
	1    0    0    -1  
$EndComp
$Comp
L Device:LED LD3
U 1 1 5DC9D5DC
P 6250 4350
F 0 "LD3" H 6243 4095 50  0000 C CNN
F 1 "TX Red 2.0V/20mA" H 6243 4186 50  0000 C CNN
F 2 "LED_SMD:LED_0603_1608Metric" H 6250 4350 50  0001 C CNN
F 3 "https://datasheet.lcsc.com/szlcsc/Hubei-KENTO-Elec-KT-0603R_C2286.pdf" H 6250 4350 50  0001 C CNN
	1    6250 4350
	-1   0    0    1   
$EndComp
$Comp
L Device:LED LD4
U 1 1 5DC9F8A2
P 6250 4650
F 0 "LD4" H 6250 4900 50  0000 C CNN
F 1 "RX Green 3.3V/20mA" H 6250 4800 50  0000 C CNN
F 2 "LED_SMD:LED_0603_1608Metric" H 6250 4650 50  0001 C CNN
F 3 "https://datasheet.lcsc.com/szlcsc/Everlight-Elec-19-217-GHC-YR1S2-3T_C72043.pdf" H 6250 4650 50  0001 C CNN
	1    6250 4650
	-1   0    0    1   
$EndComp
$Comp
L Device:R_Small R10
U 1 1 5DCAD20F
P 5600 4650
F 0 "R10" V 5404 4650 50  0000 C CNN
F 1 "470" V 5495 4650 50  0000 C CNN
F 2 "Resistor_SMD:R_0402_1005Metric" H 5600 4650 50  0001 C CNN
F 3 "~" H 5600 4650 50  0001 C CNN
	1    5600 4650
	0    1    1    0   
$EndComp
$Comp
L power:VBUS #PWR0117
U 1 1 5DCB94C0
P 5400 4650
F 0 "#PWR0117" H 5400 4500 50  0001 C CNN
F 1 "VBUS" V 5415 4777 50  0000 L CNN
F 2 "" H 5400 4650 50  0001 C CNN
F 3 "" H 5400 4650 50  0001 C CNN
	1    5400 4650
	0    -1   -1   0   
$EndComp
Wire Wire Line
	5400 4650 5500 4650
Text Label 6500 4350 0    50   ~ 0
TXD
Text Label 6500 4650 0    50   ~ 0
RXD
Wire Wire Line
	6500 4650 6400 4650
Wire Wire Line
	6500 4350 6400 4350
$Comp
L Device:LED LD1
U 1 1 5DCCA697
P 6250 5350
F 0 "LD1" H 6243 5095 50  0000 C CNN
F 1 "Bus Pwr Red 2.0V/20mA" H 6243 5186 50  0000 C CNN
F 2 "LED_SMD:LED_0603_1608Metric" H 6250 5350 50  0001 C CNN
F 3 "https://datasheet.lcsc.com/szlcsc/Hubei-KENTO-Elec-KT-0603R_C2286.pdf" H 6250 5350 50  0001 C CNN
	1    6250 5350
	-1   0    0    1   
$EndComp
$Comp
L Device:LED LD2
U 1 1 5DCCA6A1
P 6250 5650
F 0 "LD2" H 6250 5900 50  0000 C CNN
F 1 "IO Pwr Red 2.0V/20mA" H 6250 5800 50  0000 C CNN
F 2 "LED_SMD:LED_0603_1608Metric" H 6250 5650 50  0001 C CNN
F 3 "https://datasheet.lcsc.com/szlcsc/Hubei-KENTO-Elec-KT-0603R_C2286.pdf" H 6250 5650 50  0001 C CNN
	1    6250 5650
	-1   0    0    1   
$EndComp
$Comp
L Device:R_Small R11
U 1 1 5DCCA6B1
P 5600 5350
F 0 "R11" V 5404 5350 50  0000 C CNN
F 1 "680" V 5495 5350 50  0000 C CNN
F 2 "Resistor_SMD:R_0402_1005Metric" H 5600 5350 50  0001 C CNN
F 3 "~" H 5600 5350 50  0001 C CNN
	1    5600 5350
	0    1    1    0   
$EndComp
$Comp
L power:VBUS #PWR0118
U 1 1 5DCCA6BB
P 5400 5350
F 0 "#PWR0118" H 5400 5200 50  0001 C CNN
F 1 "VBUS" V 5415 5477 50  0000 L CNN
F 2 "" H 5400 5350 50  0001 C CNN
F 3 "" H 5400 5350 50  0001 C CNN
	1    5400 5350
	0    -1   -1   0   
$EndComp
Wire Wire Line
	5400 5350 5500 5350
Wire Wire Line
	6500 5350 6400 5350
$Comp
L Device:R_Small R9
U 1 1 5DCE9BAC
P 5600 5650
F 0 "R9" V 5404 5650 50  0000 C CNN
F 1 "300" V 5495 5650 50  0000 C CNN
F 2 "Resistor_SMD:R_0402_1005Metric" H 5600 5650 50  0001 C CNN
F 3 "~" H 5600 5650 50  0001 C CNN
	1    5600 5650
	0    1    1    0   
$EndComp
$Comp
L power:GND #PWR0119
U 1 1 5DD015BB
P 6500 5350
F 0 "#PWR0119" H 6500 5100 50  0001 C CNN
F 1 "GND" V 6505 5222 50  0000 R CNN
F 2 "" H 6500 5350 50  0001 C CNN
F 3 "" H 6500 5350 50  0001 C CNN
	1    6500 5350
	0    -1   -1   0   
$EndComp
Text Label 5300 5650 2    50   ~ 0
VCC_IO
Wire Wire Line
	5300 5650 5500 5650
Wire Wire Line
	5700 5350 6100 5350
Wire Wire Line
	5700 5650 6100 5650
Wire Wire Line
	5700 4650 6100 4650
$Comp
L Device:R_Small R12
U 1 1 5DD325BB
P 5600 4350
F 0 "R12" V 5404 4350 50  0000 C CNN
F 1 "680" V 5495 4350 50  0000 C CNN
F 2 "Resistor_SMD:R_0402_1005Metric" H 5600 4350 50  0001 C CNN
F 3 "~" H 5600 4350 50  0001 C CNN
	1    5600 4350
	0    1    1    0   
$EndComp
$Comp
L power:VBUS #PWR0121
U 1 1 5DD325C5
P 5400 4350
F 0 "#PWR0121" H 5400 4200 50  0001 C CNN
F 1 "VBUS" V 5415 4477 50  0000 L CNN
F 2 "" H 5400 4350 50  0001 C CNN
F 3 "" H 5400 4350 50  0001 C CNN
	1    5400 4350
	0    -1   -1   0   
$EndComp
Wire Wire Line
	5400 4350 5500 4350
Wire Wire Line
	5700 4350 6100 4350
Text Label 6600 5650 0    50   ~ 0
GND_IO
Wire Wire Line
	6400 5650 6600 5650
$Comp
L Connector:TestPoint TP1
U 1 1 5DDC449F
P 2600 1700
F 0 "TP1" H 2542 1726 50  0000 R CNN
F 1 "VBUS" H 2542 1817 50  0000 R CNN
F 2 "TestPoint:TestPoint_Pad_D1.0mm" H 2800 1700 50  0001 C CNN
F 3 "~" H 2800 1700 50  0001 C CNN
	1    2600 1700
	-1   0    0    1   
$EndComp
Wire Wire Line
	2600 1700 2600 1600
$Comp
L ch340e:CH340E U1
U 1 1 5DD1A179
P 4300 2900
F 0 "U1" H 4050 2450 50  0000 C CNN
F 1 "CH340E" H 4600 2450 50  0000 C CNN
F 2 "Rounded:MSOP-10_3x3mm_P0.5mm" H 4350 2450 50  0001 L CNN
F 3 "https://www.mpja.com/download/35227cpdata.pdf" H 3950 3600 50  0001 C CNN
	1    4300 2900
	1    0    0    -1  
$EndComp
$Comp
L Connector:TestPoint TP2
U 1 1 5DDB9564
P 5050 3200
F 0 "TP2" V 5245 3272 50  0000 C CNN
F 1 "TNOW" V 5154 3272 50  0000 C CNN
F 2 "TestPoint:TestPoint_Pad_D1.0mm" H 5250 3200 50  0001 C CNN
F 3 "~" H 5250 3200 50  0001 C CNN
	1    5050 3200
	0    1    -1   0   
$EndComp
Wire Wire Line
	4700 3200 5050 3200
Wire Wire Line
	2150 1600 2000 1600
Connection ~ 2150 1600
Wire Wire Line
	7950 3350 7850 3350
Text Label 7950 3350 0    50   ~ 0
~CTS_IO
$Comp
L Device:R_Small R2
U 1 1 5DCA94CE
P 7200 3150
F 0 "R2" V 7004 3150 50  0000 C CNN
F 1 "100" V 7095 3150 50  0000 C CNN
F 2 "Resistor_SMD:R_0402_1005Metric" H 7200 3150 50  0001 C CNN
F 3 "~" H 7200 3150 50  0001 C CNN
	1    7200 3150
	0    1    1    0   
$EndComp
$Comp
L 74lvc2g17:74LVC2G17 U2
U 1 1 5DDED925
P 7550 3350
F 0 "U2" H 7300 3200 50  0000 C CNN
F 1 "NL27WZ17DFT2G" H 7050 3450 50  0000 C CNN
F 2 "Rounded:SOT-363_SC-70-6" H 7550 3350 50  0001 C CNN
F 3 "https://datasheet.lcsc.com/szlcsc/ON-Semicon-ON-NL27WZ17DFT2G_C152467.pdf" H 7550 3350 50  0001 C CNN
	1    7550 3350
	-1   0    0    1   
$EndComp
Wire Wire Line
	7100 3150 7000 3150
Text Label 7550 3150 0    50   ~ 0
GND_IO
Text Label 7550 3550 0    50   ~ 0
VCC_IO
Wire Wire Line
	7550 3150 7550 3250
Wire Wire Line
	7550 3450 7550 3550
Wire Wire Line
	7000 3350 7300 3350
Wire Wire Line
	7100 1650 7000 1650
Wire Wire Line
	7300 1850 7000 1850
Text Label 7550 2050 0    50   ~ 0
VCC_IO
Wire Wire Line
	7550 2050 7550 1950
Wire Wire Line
	9350 2500 9450 2500
Wire Notes Line
	9050 2200 10050 2200
Wire Notes Line
	10050 2200 10050 2600
Wire Notes Line
	10050 2600 9050 2600
Wire Notes Line
	9050 2600 9050 2200
Text Notes 9050 2700 0    50   ~ 0
Place near U2 to decouple.
Wire Wire Line
	7550 1750 7550 1650
Text Label 7550 1650 0    50   ~ 0
GND_IO
$Comp
L 74lvc2g17:74LVC2G17 U2
U 2 1 5DDEF38E
P 7550 1850
F 0 "U2" H 7300 1700 50  0000 C CNN
F 1 "NL27WZ17DFT2G" H 7050 1950 50  0000 C CNN
F 2 "Rounded:SOT-363_SC-70-6" H 7550 1850 50  0001 C CNN
F 3 "https://datasheet.lcsc.com/szlcsc/ON-Semicon-ON-NL27WZ17DFT2G_C152467.pdf" H 7550 1850 50  0001 C CNN
	2    7550 1850
	-1   0    0    1   
$EndComp
Text Label 7400 1450 0    50   ~ 0
VCC_IO
Wire Wire Line
	7400 1450 7400 1650
Wire Wire Line
	7400 1650 7300 1650
Text Label 7400 2950 0    50   ~ 0
VCC_IO
Wire Wire Line
	7300 3150 7400 3150
Wire Wire Line
	7400 3150 7400 2950
$EndSCHEMATC
